…
\*Tasks: a) Drop the following variables: INDICATOR, SUBJECT, MEASURE, FREQUENCY, Flag Codes. If necessary, convert variables. b) Identifiy and report (value, country and year) the lowest and highest Gini value in the dataset. c) Identifiy the country with the highest variation in the Gini coefficient (hint: use interquartile range) and create a barplot (with x=TIME). d) Select all data with a Gini coefficient value lower than 0.245 an save the data as a new dataframe (gini\_lower). e) Calculate the mean, median, standard deviation and interquartile range for locations: Germany (DEU), Norway (NOR), France (FRA) and Costa Rica (CRI) and interpret your findings f) Create a Boxplot for: 1) All countries 2) only the country with the highest variation 3) the countries fromn e) (in one plot)

### 1a)

``` r
dataset_oecd <- dataset_oecd[-c(2,3,4,5,8)]
dataset_oecd$TIME <- as.factor(dataset_oecd$TIME)
print(dataset_oecd)
```

    ## # A tibble: 269 x 3
    ##    LOCATION TIME  Value
    ##    <chr>    <fct> <dbl>
    ##  1 AUS      2012  0.326
    ##  2 AUS      2014  0.337
    ##  3 AUT      2007  0.284
    ##  4 AUT      2008  0.281
    ##  5 AUT      2009  0.289
    ##  6 AUT      2010  0.28 
    ##  7 AUT      2011  0.281
    ##  8 AUT      2012  0.275
    ##  9 AUT      2013  0.279
    ## 10 AUT      2014  0.274
    ## # ... with 259 more rows
…
